0.0333333 -0.0123459 0.0316304 0.522829
0.0666667 -0.0129715 0.0229099 0.392156
0.1 0.00356475 0.0166493 0.314868
0.133333 0.00438791 0.00854361 0.276019
0.166667 0.00790515 -0.000124514 0.260214
0.2 0.0121497 0.0113147 0.23398
0.233333 0.0141307 0.0017551 0.227918
0.266667 0.0144944 0.00255222 0.219689
0.3 0.0220527 0.00273525 0.218228
0.333333 0.0303002 0.00177188 0.218929
0.366667 0.0348176 -0.0047194 0.222091
0.4 0.0430416 0.00397173 0.22397
0.433333 0.0403954 0.00879078 0.230933
0.466667 0.0465627 0.00190144 0.237254
0.5 0.0485569 5.4979e-05 0.245462
0.533333 0.0587322 -0.000722524 0.249701
0.566667 0.0615169 -0.000686292 0.258682
0.6 0.0658233 0.00155665 0.267054
0.633333 0.0686854 -0.00683034 0.275911
0.666667 0.0764442 -0.00363705 0.288094
0.7 0.0800494 -0.00351403 0.296743
0.733333 0.0888867 -0.00169063 0.309366
0.766667 0.0942857 0.00182484 0.319523
0.8 0.0969872 0.00318046 0.330455
0.833333 0.0990045 0.0054212 0.341979
0.866667 0.102551 0.00680875 0.354584
0.9 0.101278 0.0104166 0.363266
0.933333 0.0993411 0.00864178 0.373
0.966667 0.102758 0.00738507 0.384641
1 0.10328 0.00773609 0.394102
1.03333 0.104717 0.00732446 0.407386
1.06667 0.108348 0.00479739 0.417188
1.1 0.111953 0.00994364 0.427592
1.13333 0.116282 0.0149934 0.439363
1.16667 0.120174 0.0172584 0.449879
1.2 0.126324 0.0203766 0.461436
1.23333 0.131297 0.0189602 0.469954
1.26667 0.133398 0.0207189 0.481474
1.3 0.13442 0.0217474 0.49178
1.33333 0.135193 0.0203634 0.503583
1.36667 0.137797 0.0209791 0.514875
1.4 0.137862 0.0221096 0.52571
1.43333 0.142574 0.0267478 0.535705
1.46667 0.144088 0.0291032 0.546864
1.5 0.145269 0.0315502 0.556706
1.53333 0.146902 0.0377392 0.567577
1.56667 0.151366 0.0375179 0.578577
1.6 0.154386 0.0381548 0.5894
1.63333 0.160489 0.0429646 0.599914
1.66667 0.167643 0.0484195 0.610102
1.7 0.170459 0.0503466 0.621259
1.73333 0.17126 0.0534976 0.632586
1.76667 0.17254 0.0552872 0.643717
1.8 0.173905 0.0553127 0.653573
1.83333 0.175452 0.0559126 0.663734
1.86667 0.177953 0.0594065 0.674636
1.9 0.184459 0.0616412 0.686471
1.93333 0.187402 0.0651005 0.697977
1.96667 0.187265 0.0677017 0.710713
2 0.190949 0.0704288 0.721509
2.03333 0.194808 0.0745524 0.731056
2.06667 0.19727 0.0768738 0.74083
2.1 0.196682 0.0779281 0.751584
2.13333 0.198248 0.0807887 0.763347
2.16667 0.197756 0.0828586 0.775304
2.2 0.197242 0.08279 0.787294
2.23333 0.20133 0.0860866 0.798246
2.26667 0.202776 0.0904706 0.809009
2.3 0.206674 0.0927012 0.817906
2.33333 0.210167 0.0942582 0.82876
2.36667 0.209258 0.0964652 0.841775
2.4 0.209956 0.100078 0.853617
2.43333 0.210603 0.101298 0.863888
2.46667 0.215675 0.104749 0.873862
2.5 0.217075 0.10497 0.885026
2.53333 0.221289 0.108351 0.896161
2.56667 0.220889 0.109155 0.908368
2.6 0.223607 0.114757 0.91961
2.63333 0.226925 0.119441 0.9309
2.66667 0.229441 0.122009 0.942077
2.7 0.230356 0.122261 0.953832
2.73333 0.231579 0.125202 0.965252
2.76667 0.232582 0.127078 0.976351
2.8 0.235918 0.131072 0.987139
2.83333 0.236775 0.131763 0.997257
2.86667 0.239656 0.133088 1.00957
2.9 0.241282 0.134488 1.02001
2.93333 0.244159 0.137852 1.0312
2.96667 0.247756 0.141221 1.04222
3 0.249513 0.146098 1.05416
3.03333 0.248588 0.148515 1.06581
3.06667 0.251179 0.150958 1.07781
3.1 0.253125 0.155104 1.08805
3.13333 0.252346 0.155561 1.09875
3.16667 0.254488 0.159565 1.1098
3.2 0.257141 0.163141 1.12047
3.23333 0.259212 0.165738 1.13212
3.26667 0.261439 0.169913 1.14321
3.3 0.263641 0.171031 1.15446
3.33333 0.263209 0.172287 1.16693
3.36667 0.266428 0.176858 1.17849
3.4 0.267941 0.179675 1.18975
3.43333 0.269077 0.182048 1.20149
3.46667 0.26971 0.18346 1.21354
3.5 0.269727 0.185185 1.2259
3.53333 0.272303 0.189507 1.23837
3.56667 0.2737 0.191954 1.24999
3.6 0.272833 0.192082 1.25973
3.63333 0.275591 0.195645 1.27067
3.66667 0.276054 0.197213 1.28038
3.7 0.279405 0.20195 1.29058
3.73333 0.280495 0.205139 1.30129
3.76667 0.279707 0.204791 1.31312
3.8 0.280397 0.207649 1.32429
3.83333 0.281481 0.209583 1.33531
3.86667 0.283074 0.213381 1.34657
3.9 0.284032 0.214682 1.35879
3.93333 0.284426 0.217325 1.3696
3.96667 0.284662 0.220386 1.37915
4 0.287274 0.224405 1.39101
4.03333 0.286297 0.227176 1.40293
4.06667 0.285811 0.230831 1.41394
4.1 0.285839 0.236169 1.42438
4.13333 0.285718 0.236686 1.43576
4.16667 0.285807 0.238966 1.44851
4.2 0.286793 0.246032 1.46101
4.23333 0.28701 0.247957 1.47062
4.26667 0.287959 0.248886 1.48183
4.3 0.288029 0.251394 1.49237
4.33333 0.288376 0.255112 1.50382
4.36667 0.287888 0.25837 1.5153
4.4 0.288448 0.262425 1.52655
4.43333 0.286576 0.26477 1.5378
4.46667 0.286358 0.268673 1.54992
4.5 0.286502 0.272475 1.56101
4.53333 0.285857 0.27304 1.57369
4.56667 0.285797 0.277522 1.58446
4.6 0.286236 0.28138 1.59708
4.63333 0.285926 0.281471 1.60763
4.66667 0.285271 0.28324 1.6193
4.7 0.284762 0.283694 1.63074
4.73333 0.285478 0.285731 1.64207
4.76667 0.284895 0.288925 1.65347
4.8 0.284634 0.288952 1.66415
4.83333 0.282969 0.290138 1.67464
4.86667 0.283368 0.293234 1.68716
4.9 0.283594 0.296959 1.69839
4.93333 0.282409 0.298057 1.70978
4.96667 0.280555 0.301095 1.72114
5 0.280683 0.304653 1.7331
5.03333 0.280194 0.306712 1.7446
5.06667 0.278502 0.30978 1.75584
5.1 0.278389 0.313169 1.76803
5.13333 0.277759 0.316209 1.77863
5.16667 0.277701 0.319156 1.78897
5.2 0.277087 0.318997 1.80045
5.23333 0.275699 0.32205 1.81155
5.26667 0.274615 0.326479 1.8231
5.3 0.272865 0.326096 1.83417
5.33333 0.272547 0.328215 1.84562
5.36667 0.271374 0.329269 1.85753
5.4 0.271805 0.33227 1.86899
5.43333 0.271462 0.334964 1.88011
5.46667 0.270143 0.33657 1.89158
5.5 0.270481 0.337448 1.90316
5.53333 0.269778 0.340388 1.91539
5.56667 0.267692 0.345422 1.92674
5.6 0.266622 0.350041 1.93912
5.63333 0.265432 0.354113 1.9517
5.66667 0.264548 0.358286 1.96361
5.7 0.262417 0.362044 1.97483
5.73333 0.26177 0.364386 1.98667
5.76667 0.259983 0.365558 1.99848
5.8 0.258072 0.370926 2.01107
5.83333 0.256068 0.374135 2.02297
5.86667 0.255193 0.377662 2.03348
5.9 0.254129 0.379249 2.04564
5.93333 0.251995 0.382253 2.05761
5.96667 0.25024 0.38341 2.06982
6 0.248397 0.386829 2.08148
6.03333 0.247394 0.388752 2.09343
6.06667 0.246145 0.390806 2.1055
6.1 0.243471 0.394648 2.11748
6.13333 0.243003 0.395916 2.12882
6.16667 0.242209 0.398789 2.13857
6.2 0.2412 0.400272 2.14916
6.23333 0.239353 0.404715 2.16024
6.26667 0.23728 0.411557 2.17333
6.3 0.233826 0.414821 2.1859
6.33333 0.2318 0.418715 2.19707
6.36667 0.229359 0.421215 2.21013
6.4 0.227709 0.423622 2.22182
6.43333 0.225658 0.428311 2.23327
6.46667 0.222881 0.430375 2.24475
6.5 0.221196 0.432668 2.25629
6.53333 0.219459 0.435063 2.26897
6.56667 0.217211 0.436591 2.28176
6.6 0.214026 0.438823 2.2927
6.63333 0.212408 0.438936 2.30362
6.66667 0.210857 0.43953 2.31402
6.7 0.206566 0.444395 2.32578
6.73333 0.204927 0.446318 2.33709
6.76667 0.201475 0.450497 2.34769
6.8 0.198675 0.453059 2.35829
6.83333 0.195534 0.455086 2.36966
6.86667 0.194188 0.456002 2.38149
6.9 0.192249 0.457208 2.39169
6.93333 0.189806 0.460484 2.40288
6.96667 0.186677 0.463256 2.41469
7 0.184405 0.464701 2.42645
7.03333 0.180459 0.467487 2.43827
7.06667 0.178781 0.471419 2.44911
7.1 0.177235 0.471678 2.45997
7.13333 0.174917 0.473947 2.47184
7.16667 0.172581 0.475349 2.48362
7.2 0.170486 0.474998 2.49468
7.23333 0.169316 0.477679 2.50552
7.26667 0.164663 0.483081 2.51746
7.3 0.160523 0.485691 2.52866
7.33333 0.159037 0.485913 2.54033
7.36667 0.157178 0.486264 2.55262
7.4 0.156657 0.485874 2.56418
7.43333 0.15601 0.485873 2.57588
7.46667 0.153742 0.484867 2.58726
7.5 0.152261 0.485608 2.5994
7.53333 0.149068 0.486009 2.61022
7.56667 0.144414 0.489228 2.62148
7.6 0.142598 0.490325 2.63234
7.63333 0.13908 0.49287 2.64441
7.66667 0.135426 0.49489 2.65667
7.7 0.133211 0.496469 2.66823
7.73333 0.12984 0.49814 2.68076
7.76667 0.127811 0.500252 2.69173
7.8 0.122096 0.503747 2.70319
7.83333 0.119358 0.505368 2.71478
7.86667 0.116936 0.505514 2.72731
7.9 0.114167 0.505621 2.7389
7.93333 0.10942 0.508346 2.7525
7.96667 0.107749 0.507973 2.76396
8 0.102375 0.510388 2.7765
8.03333 0.0992563 0.513027 2.78807
8.06667 0.0983303 0.513903 2.80049
8.1 0.0954991 0.516649 2.81213
8.13333 0.0941891 0.517594 2.82403
8.16667 0.0904541 0.519554 2.83722
8.2 0.0861194 0.522272 2.84838
8.23333 0.0826269 0.523523 2.85968
8.26667 0.0791766 0.526059 2.87123
8.3 0.0770772 0.525622 2.88196
8.33333 0.0748936 0.525702 2.89318
8.36667 0.0721523 0.526524 2.90579
8.4 0.0681368 0.528105 2.91787
8.43333 0.0625495 0.53012 2.92925
8.46667 0.0601646 0.53066 2.93952
8.5 0.0577113 0.530394 2.95269
8.53333 0.0545747 0.531047 2.96351
8.56667 0.0539155 0.530436 2.97442
8.6 0.0512966 0.529477 2.98639
8.63333 0.0496208 0.528331 2.998
8.66667 0.0469503 0.527756 3.01103
8.7 0.0425021 0.529647 3.02264
8.73333 0.0374931 0.530886 3.03605
8.76667 0.0343811 0.530259 3.04751
8.8 0.0326208 0.530634 3.05834
8.83333 0.0297738 0.53034 3.0702
8.86667 0.0289969 0.527835 3.08265
8.9 0.0264857 0.527742 3.09354
8.93333 0.0236235 0.528352 3.10438
8.96667 0.0215032 0.528574 3.11596
9 0.0173398 0.528391 3.12808
9.03333 0.0145998 0.527293 3.14072
9.06667 0.00953541 0.528063 -3.12973
9.1 0.00310199 0.530117 -3.11683
9.13333 0.00126776 0.529795 -3.105
9.16667 -0.000252508 0.528476 -3.09436
9.2 -0.00158211 0.527023 -3.08285
9.23333 -0.00536046 0.527644 -3.07123
9.26667 -0.0115218 0.528546 -3.05874
9.3 -0.0152088 0.52939 -3.04712
9.33333 -0.018989 0.528064 -3.03364
9.36667 -0.0240737 0.527323 -3.02178
9.4 -0.0286996 0.527045 -3.01189
9.43333 -0.0339616 0.527633 -3.00059
9.46667 -0.0347015 0.527544 -2.98991
9.5 -0.0375866 0.525623 -2.97836
9.53333 -0.0419979 0.525015 -2.96716
9.56667 -0.0463252 0.525369 -2.9564
9.6 -0.0517858 0.525932 -2.94595
9.63333 -0.0543078 0.525692 -2.93458
9.66667 -0.0618228 0.525317 -2.92231
9.7 -0.064061 0.525075 -2.91028
9.73333 -0.0699166 0.525297 -2.89894
9.76667 -0.0698228 0.523985 -2.88744
9.8 -0.0752786 0.522334 -2.87572
9.83333 -0.0770238 0.520975 -2.86528
9.86667 -0.0835846 0.520646 -2.85363
9.9 -0.08849 0.519616 -2.84253
9.93333 -0.0910233 0.517955 -2.82997
9.96667 -0.0944994 0.516572 -2.8173
10 -0.0982937 0.514846 -2.80511
10.0333 -0.101667 0.513499 -2.79396
